\relax 
\providecommand\tcolorbox@label[2]{}
\@writefile{toc}{\contentsline {section}{\numberline {1}Introduzione}{1}}
\@writefile{toc}{\contentsline {section}{\numberline {2}Descrizione del dataset}{2}}
\@writefile{toc}{\contentsline {section}{\numberline {3}Algoritmi utilizzati}{2}}
\@writefile{toc}{\contentsline {subsection}{\numberline {3.1}Percettrone}{2}}
\newlabel{percettrone}{{1}{3}}
\@writefile{lol}{\contentsline {lstlisting}{\numberline {1}Algoritmo del percettrone}{3}}
\@writefile{toc}{\contentsline {subsection}{\numberline {3.2}Percettrone con Kernel}{4}}
\newlabel{kernel_percettrone}{{2}{4}}
\@writefile{lol}{\contentsline {lstlisting}{\numberline {2}Algoritmo del percettrone con kernel}{4}}
\@writefile{toc}{\contentsline {subsection}{\numberline {3.3}Percettrone multistrato}{5}}
\@writefile{lof}{\contentsline {figure}{\numberline {1}{\ignorespaces Esempio di rete neurale}}{6}}
\@writefile{toc}{\contentsline {section}{\numberline {4}Metriche di valutazione}{6}}
\@writefile{toc}{\contentsline {subsection}{\numberline {4.1}Metriche per example}{6}}
\@writefile{toc}{\contentsline {subsection}{\numberline {4.2}Metriche per class}{7}}
\@writefile{toc}{\contentsline {paragraph}{AUROC}{7}}
\@writefile{toc}{\contentsline {paragraph}{AUPRC}{7}}
\@writefile{toc}{\contentsline {section}{\numberline {5}Setup sperimentale}{7}}
\@writefile{toc}{\contentsline {subsection}{\numberline {5.1}Dettagli implementativi}{8}}
\@writefile{toc}{\contentsline {section}{\numberline {6}Risultati}{8}}
\@writefile{lot}{\contentsline {table}{\numberline {1}{\ignorespaces Tabella dei migliori parametri trovati}}{9}}
\newlabel{table:best_params}{{1}{9}}
\newlabel{figure:cc_results}{{6}{10}}
\@writefile{lof}{\contentsline {figure}{\numberline {2}{\ignorespaces Grafico riassuntivo delle prestazioni sulle componenti cellulari}}{10}}
\@writefile{lot}{\contentsline {table}{\numberline {2}{\ignorespaces Tabella delle prestazioni sulle componenti cellulari}}{10}}
\newlabel{table:cc_results}{{2}{10}}
\newlabel{figure:mf_results}{{6}{11}}
\@writefile{lof}{\contentsline {figure}{\numberline {3}{\ignorespaces Grafico riassuntivo delle prestazioni sulle funzioni molecolari}}{11}}
\newlabel{table:mf_results}{{6}{11}}
\@writefile{lot}{\contentsline {table}{\numberline {3}{\ignorespaces Tabella prestazioni sulle funzioni molecolari}}{11}}
\@writefile{toc}{\contentsline {section}{\numberline {7}Conclusioni}{11}}
